%YAML 1.1
%TAG !u! tag:unity3d.com,2011:
--- !u!1045 &1
EditorBuildSettings:
  m_ObjectHideFlags: 0
  serializedVersion: 2
  m_Scenes:
  - enabled: 1
    path: Assets/Scenes/Main.unity
    guid: f644892ceb5404542a89a39e0254d5aa
  - enabled: 1
    path: Assets/Scenes/Game.unity
    guid: 303f736d92a50124eb35c42de1b3f074
  m_configObjects: {}
